…
``` r
tshark_hosts(system.file("pcap", "http.pcap", package = "tsharrk"))
##               ip                     host
## 1 216.239.59.104 pagead.google.akadns.net
## 2  216.239.59.99 pagead.google.akadns.net
```

``` r
library(tibble)

as_tibble(
  packet_summary(system.file("pcap", "http.pcap", package = "tsharrk"))
)
## # A tibble: 43 x 7
##    packet_num    ts src          dst          proto length info                                                         
##         <dbl> <dbl> <chr>        <chr>        <chr>  <dbl> <chr>                                                        
##  1          1 0     145.254.160… 65.208.228.… TCP       62 "3372 → 80 [SYN] Seq=0 Win=8760 Len=0 MSS=1460 SACK_PERM=1"  
##  2          2 0.911 65.208.228.… 145.254.160… TCP       62 "80 → 3372 [SYN, ACK] Seq=0 Ack=1 Win=5840 Len=0 MSS=1380 SA…
##  3          3 0.911 145.254.160… 65.208.228.… TCP       54 "3372 → 80 [ACK] Seq=1 Ack=1 Win=9660 Len=0"                 
##  4          4 0.911 145.254.160… 65.208.228.… HTTP     533 "GET /download.html HTTP/1.1 "                               
##  5          5 1.47  65.208.228.… 145.254.160… TCP       54 "80 → 3372 [ACK] Seq=1 Ack=480 Win=6432 Len=0"               
##  6          6 1.68  65.208.228.… 145.254.160… TCP     1434 "HTTP/1.1 200 OK  [TCP segment of a reassembled PDU]"        
##  7          7 1.81  145.254.160… 65.208.228.… TCP       54 "3372 → 80 [ACK] Seq=480 Ack=1381 Win=9660 Len=0"            
##  8          8 1.81  65.208.228.… 145.254.160… TCP     1434 "80 → 3372 [ACK] Seq=1381 Ack=480 Win=6432 Len=1380 [TCP seg…
##  9          9 2.01  145.254.160… 65.208.228.… TCP       54 "3372 → 80 [ACK] Seq=480 Ack=2761 Win=9660 Len=0"            
## 10         10 2.44  65.208.228.… 145.254.160… TCP     1434 "80 → 3372 [ACK] Seq=2761 Ack=480 Win=6432 Len=1380 [TCP seg…
## # … with 33 more rows
```
…
